[
    "enode://915ee4c710f6b35960c424bc80d8af6eeaec30bbe58bf4eae336d38d037c87da10261fc15f025cb19f79a6403acad9d09217601dd27ae274c89863fd3e98ab91@51.38.130.24:30303",
    "enode://46007967c7904699f907933c5b9a99b6241dde3ccf56aea4dfc268942152e1c80bfb48daf7fe3cee0d9acefb9169cc742932721d5241089453f5e2900b2e95d7@193.70.42.239:30303",
    "enode://1a64cd0c93a8102cf427082c674d565b156b0fd882978eecba9e1dea60a6df515d4c7843caef0e1d52ad8620bfb6310867a3770ef7bba21fc2ff7557db7358a6@51.195.200.97:30303",
    "enode://002428f5979f2eab1c7d44e9acc3308e3d69cae5075184ea64c37a2defed94c7d28338164c20ffd30ed44d2eeab6562e5f499c4c4fb1f2476912f4f3b609d341@51.222.158.187:30303",
    "enode://7890a2c5f2cd05d9a5808e280350c6cae6d326875506654972f12926daf2d8e2d3031db8a9d0a0e4d10ac97e613af2773acdcb583795c1dc5668f8204a30aa10@51.79.204.202:30303"
]